fp,cid,name
experiment/06.11.19_nominal.npy, 0, Исправная
experiment/14.12.20_fluid_leak_nominal_state.npy, 0, Исправная
experiment/17.12.20_valve_set_error_nominal.npy, 0, Исправная
experiment/31.12.20_valve_set_error_nominal.npy, 0, Исправная
experiment/06.11.19_pga_leak.npy, 1, Утечка газа в ПГА
